{
  "project_info": {
    "project_number": "61421153315",
    "firebase_url": "https://feira-das-profissoes-7831d.firebaseio.com",
    "project_id": "feira-das-profissoes-7831d",
    "storage_bucket": "feira-das-profissoes-7831d.appspot.com"
  },
  "client": [
    {
      "client_info": {
        "mobilesdk_app_id": "1:61421153315:android:eab4191c88e08122",
        "android_client_info": {
          "package_name": "br.com.unifor.feiradasprofissoes"
        }
      },
      "oauth_client": [
        {
          "client_id": "61421153315-iojtlj54fm3qqgeuteos7cfrflvbo5r1.apps.googleusercontent.com",
          "client_type": 1,
          "android_info": {
            "package_name": "br.com.unifor.feiradasprofissoes",
            "certificate_hash": "064744330aac1ec28b41fb2322f3feded78cc1d2"
          }
        },
        {
          "client_id": "61421153315-fsm8gj76ioolkd8c40ir510j3t6t3qni.apps.googleusercontent.com",
          "client_type": 3
        }
      ],
      "api_key": [
        {
          "current_key": "AIzaSyA4Mg9q-l51_hM0bkBbzOgXsayWeZrT3xY"
        }
      ],
      "services": {
        "appinvite_service": {
          "other_platform_oauth_client": [
            {
              "client_id": "61421153315-fsm8gj76ioolkd8c40ir510j3t6t3qni.apps.googleusercontent.com",
              "client_type": 3
            }
          ]
        }
      }
    }
  ],
  "configuration_version": "1"
}